%!PS-Adobe-3.0 EPSF-3.0
%%Creator: MATLAB, The MathWorks, Inc. Version 7.14.0.739 (R2012a). Operating System: Linux 2.6.18-348.6.1.el5 #1 SMP Fri Apr 26 09:21:26 EDT 2013 x86_64.
%%Title: /uio/hume/student-u42/krisbrox/mat-inf4130/smallm.eps
%%CreationDate: 10/10/2013  14:58:54
%%DocumentNeededFonts: Helvetica
%%DocumentProcessColors: Cyan Magenta Yellow Black
%%LanguageLevel: 2
%%Pages: 1
%%BoundingBox:    92   266   501   574
%%EndComments

%%BeginProlog
% MathWorks dictionary
/MathWorks 160 dict begin
% definition operators
/bdef {bind def} bind def
/ldef {load def} bind def
/xdef {exch def} bdef
/xstore {exch store} bdef
% operator abbreviations
/c  /clip ldef
/cc /concat ldef
/cp /closepath ldef
/gr /grestore ldef
/gs /gsave ldef
/mt /moveto ldef
/np /newpath ldef
/cm /currentmatrix ldef
/sm /setmatrix ldef
/rm /rmoveto ldef
/rl /rlineto ldef
/s {show newpath} bdef
/sc {setcmykcolor} bdef
/sr /setrgbcolor ldef
/sg /setgray ldef
/w /setlinewidth ldef
/j /setlinejoin ldef
/cap /setlinecap ldef
/rc {rectclip} bdef
/rf {rectfill} bdef
% page state control
/pgsv () def
/bpage {/pgsv save def} bdef
/epage {pgsv restore} bdef
/bplot /gsave ldef
/eplot {stroke grestore} bdef
% orientation switch
/portraitMode 0 def /landscapeMode 1 def /rotateMode 2 def
% coordinate system mappings
/dpi2point 0 def
% font control
/FontSize 0 def
/FMS {/FontSize xstore findfont [FontSize 0 0 FontSize neg 0 0]
  makefont setfont} bdef
/reencode {exch dup where {pop load} {pop StandardEncoding} ifelse
  exch dup 3 1 roll findfont dup length dict begin
  { 1 index /FID ne {def}{pop pop} ifelse } forall
  /Encoding exch def currentdict end definefont pop} bdef
/isroman {findfont /CharStrings get /Agrave known} bdef
/FMSR {3 1 roll 1 index dup isroman {reencode} {pop pop} ifelse
  exch FMS} bdef
/csm {1 dpi2point div -1 dpi2point div scale neg translate
 dup landscapeMode eq {pop -90 rotate}
  {rotateMode eq {90 rotate} if} ifelse} bdef
% line types: solid, dotted, dashed, dotdash
/SO { [] 0 setdash } bdef
/DO { [.5 dpi2point mul 4 dpi2point mul] 0 setdash } bdef
/DA { [6 dpi2point mul] 0 setdash } bdef
/DD { [.5 dpi2point mul 4 dpi2point mul 6 dpi2point mul 4
  dpi2point mul] 0 setdash } bdef
% macros for lines and objects
/L {lineto stroke} bdef
/MP {3 1 roll moveto 1 sub {rlineto} repeat} bdef
/AP {{rlineto} repeat} bdef
/PDlw -1 def
/W {/PDlw currentlinewidth def setlinewidth} def
/PP {closepath eofill} bdef
/DP {closepath stroke} bdef
/MR {4 -2 roll moveto dup  0 exch rlineto exch 0 rlineto
  neg 0 exch rlineto closepath} bdef
/FR {MR stroke} bdef
/PR {MR fill} bdef
/L1i {{currentfile picstr readhexstring pop} image} bdef
/tMatrix matrix def
/MakeOval {newpath tMatrix currentmatrix pop translate scale
0 0 1 0 360 arc tMatrix setmatrix} bdef
/FO {MakeOval stroke} bdef
/PO {MakeOval fill} bdef
/PD {currentlinewidth 2 div 0 360 arc fill
   PDlw -1 eq not {PDlw w /PDlw -1 def} if} def
/FA {newpath tMatrix currentmatrix pop translate scale
  0 0 1 5 -2 roll arc tMatrix setmatrix stroke} bdef
/PA {newpath tMatrix currentmatrix pop	translate 0 0 moveto scale
  0 0 1 5 -2 roll arc closepath tMatrix setmatrix fill} bdef
/FAn {newpath tMatrix currentmatrix pop translate scale
  0 0 1 5 -2 roll arcn tMatrix setmatrix stroke} bdef
/PAn {newpath tMatrix currentmatrix pop translate 0 0 moveto scale
  0 0 1 5 -2 roll arcn closepath tMatrix setmatrix fill} bdef
/vradius 0 def /hradius 0 def /lry 0 def
/lrx 0 def /uly 0 def /ulx 0 def /rad 0 def
/MRR {/vradius xdef /hradius xdef /lry xdef /lrx xdef /uly xdef
  /ulx xdef newpath tMatrix currentmatrix pop ulx hradius add uly
  vradius add translate hradius vradius scale 0 0 1 180 270 arc 
  tMatrix setmatrix lrx hradius sub uly vradius add translate
  hradius vradius scale 0 0 1 270 360 arc tMatrix setmatrix
  lrx hradius sub lry vradius sub translate hradius vradius scale
  0 0 1 0 90 arc tMatrix setmatrix ulx hradius add lry vradius sub
  translate hradius vradius scale 0 0 1 90 180 arc tMatrix setmatrix
  closepath} bdef
/FRR {MRR stroke } bdef
/PRR {MRR fill } bdef
/MlrRR {/lry xdef /lrx xdef /uly xdef /ulx xdef /rad lry uly sub 2 div def
  newpath tMatrix currentmatrix pop ulx rad add uly rad add translate
  rad rad scale 0 0 1 90 270 arc tMatrix setmatrix lrx rad sub lry rad
  sub translate rad rad scale 0 0 1 270 90 arc tMatrix setmatrix
  closepath} bdef
/FlrRR {MlrRR stroke } bdef
/PlrRR {MlrRR fill } bdef
/MtbRR {/lry xdef /lrx xdef /uly xdef /ulx xdef /rad lrx ulx sub 2 div def
  newpath tMatrix currentmatrix pop ulx rad add uly rad add translate
  rad rad scale 0 0 1 180 360 arc tMatrix setmatrix lrx rad sub lry rad
  sub translate rad rad scale 0 0 1 0 180 arc tMatrix setmatrix
  closepath} bdef
/FtbRR {MtbRR stroke } bdef
/PtbRR {MtbRR fill } bdef
/stri 6 array def /dtri 6 array def
/smat 6 array def /dmat 6 array def
/tmat1 6 array def /tmat2 6 array def /dif 3 array def
/asub {/ind2 exch def /ind1 exch def dup dup
  ind1 get exch ind2 get sub exch } bdef
/tri_to_matrix {
  2 0 asub 3 1 asub 4 0 asub 5 1 asub
  dup 0 get exch 1 get 7 -1 roll astore } bdef
/compute_transform {
  dmat dtri tri_to_matrix tmat1 invertmatrix 
  smat stri tri_to_matrix tmat2 concatmatrix } bdef
/ds {stri astore pop} bdef
/dt {dtri astore pop} bdef
/db {2 copy /cols xdef /rows xdef mul dup 3 mul string
  currentfile 
  3 index 0 eq {/ASCIIHexDecode filter}
  {/ASCII85Decode filter 3 index 2 eq {/RunLengthDecode filter} if }
  ifelse exch readstring pop
  dup 0 3 index getinterval /rbmap xdef
  dup 2 index dup getinterval /gbmap xdef
  1 index dup 2 mul exch getinterval /bbmap xdef pop pop}bdef
/it {gs np dtri aload pop moveto lineto lineto cp c
  cols rows 8 compute_transform 
  rbmap gbmap bbmap true 3 colorimage gr}bdef
/il {newpath moveto lineto stroke}bdef
currentdict end def
%%EndProlog

%%BeginSetup
MathWorks begin

0 cap

end
%%EndSetup

%%Page: 1 1
%%BeginPageSetup
%%PageBoundingBox:    92   266   501   574
MathWorks begin
bpage
%%EndPageSetup

%%BeginObject: obj1
bplot

/dpi2point 12 def
portraitMode 1104 6888 csm

    0     0  4916  3688 rc
85 dict begin %Colortable dictionary
/c0 { 0.000000 0.000000 0.000000 sr} bdef
/c1 { 1.000000 1.000000 1.000000 sr} bdef
/c2 { 0.900000 0.000000 0.000000 sr} bdef
/c3 { 0.000000 0.820000 0.000000 sr} bdef
/c4 { 0.000000 0.000000 0.800000 sr} bdef
/c5 { 0.910000 0.820000 0.320000 sr} bdef
/c6 { 1.000000 0.260000 0.820000 sr} bdef
/c7 { 0.000000 0.820000 0.820000 sr} bdef
c0
1 j
1 sg
   0    0 4917 3689 rf
6 w
0 1661 -1655 -761 0 -1661 4449 2698 4 MP
PP
1655 761 0 1661 -1655 -761 0 -1661 4449 2698 5 MP stroke
1655 761 2156 -584 -1655 -760 2293 3281 4 MP
PP
-2156 583 1655 761 2156 -584 -1655 -760 2293 3281 5 MP stroke
0 1661 2156 -584 0 -1661 638 2521 4 MP
PP
-2156 584 0 1661 2156 -584 0 -1661 638 2521 5 MP stroke
4 w
DO
0 sg
2293 3281 mt  638 2521 L
 638 2521 mt  638  860 L
2832 3136 mt 1177 2375 L
1177 2375 mt 1177  714 L
3371 2990 mt 1716 2229 L
1716 2229 mt 1716  568 L
3910 2844 mt 2255 2083 L
2255 2083 mt 2255  422 L
4449 2698 mt 2794 1937 L
2794 1937 mt 2794  276 L
2293 3281 mt 4449 2698 L
4449 2698 mt 4449 1037 L
1879 3091 mt 4035 2508 L
4035 2508 mt 4035  847 L
1466 2901 mt 3621 2317 L
3621 2317 mt 3621  657 L
1052 2711 mt 3208 2127 L
3208 2127 mt 3208  467 L
 638 2521 mt 2794 1937 L
2794 1937 mt 2794  276 L
 638 2521 mt 2794 1937 L
2794 1937 mt 4449 2698 L
 638 2106 mt 2794 1522 L
2794 1522 mt 4449 2283 L
 638 1691 mt 2794 1107 L
2794 1107 mt 4449 1867 L
 638 1275 mt 2794  692 L
2794  692 mt 4449 1452 L
 638  860 mt 2794  276 L
2794  276 mt 4449 1037 L
SO
6 w
2293 3281 mt 4449 2698 L
2293 3281 mt  638 2521 L
 638 2521 mt  638  860 L
2293 3281 mt 2343 3305 L
%%IncludeResource: font Helvetica
/Helvetica /ISOLatin1Encoding 120 FMSR

2375 3430 mt 
(1) s
2832 3136 mt 2882 3159 L
2914 3284 mt 
(2) s
3371 2990 mt 3421 3013 L
3453 3138 mt 
(3) s
3910 2844 mt 3960 2867 L
3992 2993 mt 
(4) s
4449 2698 mt 4499 2721 L
4531 2847 mt 
(5) s
2293 3281 mt 2239 3296 L
2139 3416 mt 
(1) s
1879 3091 mt 1825 3106 L
1726 3226 mt 
(2) s
1466 2901 mt 1412 2916 L
1312 3036 mt 
(3) s
1052 2711 mt  998 2726 L
 899 2846 mt 
(4) s
 638 2521 mt  585 2535 L
 485 2655 mt 
(5) s
 638 2521 mt  588 2498 L
 490 2527 mt 
(1) s
 638 2106 mt  588 2082 L
 490 2112 mt 
(2) s
 638 1691 mt  588 1667 L
 490 1697 mt 
(3) s
 638 1275 mt  588 1252 L
 490 1282 mt 
(4) s
 638  860 mt  588  837 L
 490  866 mt 
(5) s
 638  590 mt 
(x 10) s
%%IncludeResource: font Helvetica
/Helvetica /ISOLatin1Encoding 80 FMSR

 864  516 mt 
(-3) s
gs 638 276 3811 3006 rc
/c8 { 0.000000 0.562500 1.000000 sr} bdef
c8
-414 -499 539 163 3910 2489 3 MP
PP
0 sg
3910 2489 mt 4449 2652 L
4449 2652 mt 4035 2153 L
/c9 { 1.000000 0.125000 0.000000 sr} bdef
c9
-413 -83 539 450 3082 1406 3 MP
PP
0 sg
3082 1406 mt 3621 1856 L
3621 1856 mt 3208 1773 L
c8
539 376 -414 -712 3910 2489 3 MP
PP
0 sg
3910 2489 mt 3496 1777 L
3496 1777 mt 4035 2153 L
/c10 { 1.000000 0.750000 0.000000 sr} bdef
c10
-414 -297 539 376 3496 1777 3 MP
PP
0 sg
3496 1777 mt 4035 2153 L
4035 2153 mt 3621 1856 L
/c11 { 0.000000 0.875000 1.000000 sr} bdef
c11
-414 -712 539 -40 3371 2529 3 MP
PP
0 sg
3371 2529 mt 3910 2489 L
3910 2489 mt 3496 1777 L
c10
539 450 -414 -371 3496 1777 3 MP
PP
0 sg
3496 1777 mt 3082 1406 L
3082 1406 mt 3621 1856 L
c10
-414 118 539 376 2669 1397 3 MP
PP
0 sg
2669 1397 mt 3208 1773 L
3208 1773 mt 2794 1891 L
c9
539 376 -413 -9 3082 1406 3 MP
PP
0 sg
3082 1406 mt 2669 1397 L
2669 1397 mt 3208 1773 L
c11
539 35 -414 -787 3371 2529 3 MP
PP
0 sg
3371 2529 mt 2957 1742 L
2957 1742 mt 3496 1777 L
c9
-414 -371 539 35 2957 1742 3 MP
PP
0 sg
2957 1742 mt 3496 1777 L
3496 1777 mt 3082 1406 L
c8
-414 -787 539 -252 2832 2781 3 MP
PP
0 sg
2832 2781 mt 3371 2529 L
3371 2529 mt 2957 1742 L
c9
-414 332 539 35 2130 1362 3 MP
PP
0 sg
2130 1362 mt 2669 1397 L
2669 1397 mt 2255 1729 L
/c12 { 0.500000 0.000000 0.000000 sr} bdef
c12
539 35 -413 18 2543 1344 3 MP
PP
0 sg
2543 1344 mt 2130 1362 L
2130 1362 mt 2669 1397 L
c10
539 162 -414 332 2669 1397 3 MP
PP
0 sg
2669 1397 mt 2255 1729 L
2255 1729 mt 2794 1891 L
c12
-413 -9 539 62 2543 1344 3 MP
PP
0 sg
2543 1344 mt 3082 1406 L
3082 1406 mt 2669 1397 L
c9
539 62 -414 -398 2957 1742 3 MP
PP
0 sg
2957 1742 mt 2543 1344 L
2543 1344 mt 3082 1406 L
c8
539 -327 -414 -712 2832 2781 3 MP
PP
0 sg
2832 2781 mt 2418 2069 L
2418 2069 mt 2957 1742 L
c10
-414 -398 539 -327 2418 2069 3 MP
PP
0 sg
2418 2069 mt 2957 1742 L
2957 1742 mt 2543 1344 L
/c13 { 0.000000 0.000000 0.562500 sr} bdef
c13
-414 -712 539 -455 2293 3236 3 MP
PP
0 sg
2293 3236 mt 2832 2781 L
2832 2781 mt 2418 2069 L
c9
539 -39 -414 406 2130 1362 3 MP
PP
0 sg
2130 1362 mt 1716 1768 L
1716 1768 mt 2255 1729 L
c10
538 -354 -413 -371 2418 2069 3 MP
PP
0 sg
2418 2069 mt 2005 1698 L
2005 1698 mt 2543 1344 L
c9
-413 18 538 -354 2005 1698 3 MP
PP
0 sg
2005 1698 mt 2543 1344 L
2543 1344 mt 2130 1362 L
c13
539 -668 -414 -499 2293 3236 3 MP
PP
0 sg
2293 3236 mt 1879 2737 L
1879 2737 mt 2418 2069 L
c8
-413 -371 539 -668 1879 2737 3 MP
PP
0 sg
1879 2737 mt 2418 2069 L
2418 2069 mt 2005 1698 L
c10
-414 406 539 -327 1591 1689 3 MP
PP
0 sg
1591 1689 mt 2130 1362 L
2130 1362 mt 1716 1768 L
c9
539 -327 -414 -9 2005 1698 3 MP
PP
0 sg
2005 1698 mt 1591 1689 L
1591 1689 mt 2130 1362 L
c8
539 -742 -413 -297 1879 2737 3 MP
PP
0 sg
1879 2737 mt 1466 2440 L
1466 2440 mt 2005 1698 L
c10
539 -253 -414 332 1591 1689 3 MP
PP
0 sg
1591 1689 mt 1177 2021 L
1177 2021 mt 1716 1768 L
c11
-414 -9 539 -742 1466 2440 3 MP
PP
0 sg
1466 2440 mt 2005 1698 L
2005 1698 mt 1591 1689 L
c11
539 -668 -414 -83 1466 2440 3 MP
PP
0 sg
1466 2440 mt 1052 2357 L
1052 2357 mt 1591 1689 L
c8
-414 332 539 -668 1052 2357 3 MP
PP
0 sg
1052 2357 mt 1591 1689 L
1591 1689 mt 1177 2021 L
c8
539 -454 -414 118 1052 2357 3 MP
PP
0 sg
1052 2357 mt  638 2475 L
 638 2475 mt 1177 2021 L
gr


end %%Color Dict

eplot
%%EndObject

epage
end

showpage

%%Trailer
%%EOF
