Point (1) = {0,   0,   0, 0.04};
Point (2) = {0,   0.41,0, 0.04};
Point (3) = {2.2, 0.41,0, 0.04};
Point (4) = {2.2, 0,   0, 0.04};

Point (5) = {0.2,  0.2,  0, 0.014};
Point (6) = {0.25, 0.2,  0, 0.014};
Point (7) = {0.2,  0.15, 0, 0.014};
Point (8) = {0.15, 0.2,  0, 0.014};
Point (9) = {0.2,  0.25, 0, 0.014};

Point (10) = {0,  0,    0.2, 0.04};
Point (11) = {0,  0.41, 0.2, 0.04};
Point (12) = {2.2,0.41, 0.2, 0.04};
Point (13) = {2.2,0,    0.2, 0.04};

Point (14) = {0.2,  0.2,  0.2, 0.014};
Point (15) = {0.25, 0.2,  0.2, 0.014};
Point (16) = {0.2,  0.15, 0.2, 0.014};
Point (17) = {0.15, 0.2,  0.2, 0.014};
Point (18) = {0.2,  0.25, 0.2, 0.014};

Circle (1) = {6,5,7};
Circle (2) = {7,5,8};
Circle (3) = {8,5,9};
Circle (4) = {9,5,6};

Circle (5) = {15,14,16};
Circle (6) = {16,14,17};
Circle (7) = {17,14,18};
Circle (8) = {18,14,15};

Line (9)  = {1,2};
Line (10) = {2,3};
Line (11) = {3,4};
Line (12) = {4,1};

Line (13) = {10,11};
Line (14) = {11,12};
Line (15) = {12,13};
Line (16) = {13,10};

Line (17) = {1,10};
Line (18) = {2,11};
Line (19) = {3,12};
Line (20) = {4,13};

Line Loop (21) = {1,2,3,4};
Line Loop (22) = {5,6,7,8};
Line Loop (23) = {9,10,11,12};
Line Loop (24) = {13,14,15,16};




//Plane Surface (12) = {10,11};

Plane Surface(25) = {22, 24};
Line Loop(26) = {19, 15, -20, -11};
Plane Surface(27) = {26};
Line Loop(28) = {13, -18, -9, 17};
Plane Surface(29) = {28};
Line Loop(30) = {16, -17, -12, 20};
Plane Surface(31) = {30};
Line Loop(32) = {14, -19, -10, 18};
Plane Surface(33) = {32};
Plane Surface(34) = {21, 23};
