Point (1) = {0,   0,   0, 0.04};
Point (2) = {0,   0.41,0, 0.04};
Point (3) = {2.2, 0.41,0, 0.04};
Point (4) = {2.2, 0,   0, 0.04};

Point (5) = {0.2,  0.2,  0, 0.014};
Point (6) = {0.25, 0.2,  0, 0.014};
Point (7) = {0.2,  0.15, 0, 0.014};
Point (8) = {0.15, 0.2,  0, 0.014};
Point (9) = {0.2,  0.25, 0, 0.014};

Circle (1) = {6,5,7};
Circle (2) = {7,5,8};
Circle (3) = {8,5,9};
Circle (4) = {9,5,6};

Line (6) = {1,2};
Line (7) = {2,3};
Line (8) = {3,4};
Line (9) = {4,1};

Line Loop (10) = {1,2,3,4};
Line Loop (11) = {6,7,8,9};

Plane Surface (12) = {10,11};
