Point (1) = {0,0,0,0.04};
Point (2) = {1,0,0,0.04};
Point (3) = {0,1,0,0.04};
Point (4) = {-1,0,0,0.04};
Point (5) = {0,-1,0,0.04};

Point (6) = {0.5,0,0,0.04};
Point (7) = {0.8,0,0,0.04};
Point (8) = {0.5,0.3,0,0.04};
Point (9) = {0.2,0,0,0.04};
Point (10) = {0.5,-0.3,0,0.04};

Circle (1) = {2,1,3};
Circle (2) = {3,1,4};
Circle (3) = {4,1,5};
Circle (4) = {5,1,2};

Circle (5) = {7,6,8};
Circle (6) = {8,6,9};
Circle (7) = {9,6,10};
Circle (8) = {10,6,7};

Line Loop (9) = {1,2,3,4};
Line Loop (10) = {5,6,7,8};

Plane Surface (11) = {9,10};
