Point (1) = {0., 0., 0., 0.04};
Point (2) = {0., 0.5, 0., 0.04};
Point (3) = {1., 0., 0., 0.04};
Point (4) = {0., -0.5, 0., 0.04};
Point (5) = {-1., 0., 0., 0.04};
Point (6) = {0.05, 0, 0, 0.04};

Ellipse (1) = {2, 1, 6, 3};
Ellipse (2) = {3, 1, 6, 4};
Ellipse (3) = {4, 1, 6, 5};
Ellipse (4) = {5, 1, 6, 2};

Line Loop (5) = {1,2,3,4};

Plane Surface (6) = {5};
