Point (1) = {0., 0.1, 0., 0.05};
Point (2) = {0., 0.5, 0., 0.05};
Point (3) = {1., 0.5, 0., 0.05};
Point (4) = {1., 0., 0., 0.01};
Point (5) = {0.5, 0., 0., 0.003};
Point (6) = {0.5, 0.1, 0., 0.003};

Line (1) = {1,2};
Line (2) = {2,3};
Line (3) = {3,4};
Line (4) = {4,5};
Line (5) = {5,6};
Line (6) = {6,1};

Line Loop (7) = {1,2,3,4,5,6};
Plane Surface (8) = {7};
