h = 0.025;
Point(1) = {-0.5, 0.866025, 0, h};
Point(2) = {0.5, 0.866025, 0, h};
Point(3) = {0, 0, 0, h};
Line(1) = {1, 2};
Line(2) = {2, 3};
Line(3) = {3, 1};
Line Loop(4) = {1, 2, 3};
Plane Surface(5) = {4};
